{"photos":{"page":3, "pages":10, "perpage":50, "total":500, "photo":[{"id":"8727334490", "owner":"11155634@N07", "secret":"c6dc3a137a", "server":"7459", "farm":8, "title":"Lagoa Azeda - Jequi\u00e1 da Praia, Alagoas", "ispublic":1, "isfriend":0, "isfamily":0, "tags":"morning brazil sky horse mountains latinamerica southamerica nature \u00e1gua horizontal brasil clouds reflections landscape photography day colours photographer shadows natureza lagoon dia paisagem palmeiras c\u00e9u palm pasto palmtree lagoa fotografia litoral cavalo reflexos sombras fot\u00f3grafo nordeste manh\u00e3 coqueiros mangue alagoas relva beautifulday am\u00e9ricadosul am\u00e9ricalatina colorido n\u00favens regi\u00e3onordeste relvado serras \u00e1guadoce canonef24105mmf4lis viladepescadores rep\u00fablicafederativadobrasil pontotur\u00edstico linhadohorizonte canoneos5dmarkii atra\u00e7\u00e3otur\u00edstica lugarcalmo jequi\u00e1dapraia litoralsuldealagoas franciscoarag\u00e3o estadodealagoas lugarexclusivo lugarimperd\u00edvel munic\u00edpiodejequi\u00e1dapraia povoadolagoaazeda litoralsuldoestadodealagoas povoadodepescadores"}, {"id":"8726604020", "owner":"83177778@N02", "secret":"bc3cc738a4", "server":"7330", "farm":8, "title":"Beyond the light-gold plateau", "ispublic":1, "isfriend":0, "isfamily":0, "tags":"japannorthalps mtutsukusigahara"}, {"id":"8726103295", "owner":"11516077@N07", "secret":"2b1facc9cd", "server":"7378", "farm":8, "title":"Bobolink - EXPLORED", "ispublic":1, "isfriend":0, "isfamily":0, "tags":""}, {"id":"8725954720", "owner":"32777348@N08", "secret":"a84960ef46", "server":"7389", "farm":8, "title":"millenium bridge", "ispublic":1, "isfriend":0, "isfamily":0, "tags":"bridge london night millenium"}, {"id":"8725897895", "owner":"22475926@N08", "secret":"b7eef20ae6", "server":"7309", "farm":8, "title":"Prothonotary Warbler (Protonotaria citrea)", "ispublic":1, "isfriend":0, "isfamily":0, "tags":""}, {"id":"8725817778", "owner":"25686190@N02", "secret":"8ffe7ef8ea", "server":"7419", "farm":8, "title":"Squalo79 @ Calcata", "ispublic":1, "isfriend":0, "isfamily":0, "tags":"bw white black e bianco nero 79 tufo calcata squalo"}, {"id":"8725043821", "owner":"56617533@N07", "secret":"5039ee98f3", "server":"7344", "farm":8, "title":"...", "ispublic":1, "isfriend":0, "isfamily":0, "tags":"snow alps canon spring journey susank velikaplanina topofthemountain siblingsontheroad bunnysroadtrip thekamnik\u2013savinjaalps thesouthernlimestonealps"}, {"id":"8724712371", "owner":"21382895@N02", "secret":"49b8bca372", "server":"7300", "farm":8, "title":"Paesaggio Lombardo in BN 7", "ispublic":1, "isfriend":0, "isfamily":0, "tags":"veterinarifotografi"}, {"id":"8726105104", "owner":"9510496@N07", "secret":"a6e1b39828", "server":"7332", "farm":8, "title":"Poppies", "ispublic":1, "isfriend":0, "isfamily":0, "tags":""}, {"id":"8726093841", "owner":"60895619@N00", "secret":"400d108673", "server":"7429", "farm":8, "title":"Sundown", "ispublic":1, "isfriend":0, "isfamily":0, "tags":"sunset brazil sky man brasil sundown saopaulo hills panasonic saojosedoscampos mantiqueira dmctz30"}, {"id":"8725970974", "owner":"53940597@N07", "secret":"6b7454e6f2", "server":"7311", "farm":8, "title":"Family photo", "ispublic":1, "isfriend":0, "isfamily":0, "tags":"black bird nature birds canon eos blackwhite duck ducks 6d lintu sorsa linnut musta sorsat mustavalkoinen valkoinen ef135f2l kivetonrock"}, {"id":"8725751182", "owner":"22279581@N05", "secret":"cd3227dd26", "server":"7344", "farm":8, "title":"The Station", "ispublic":1, "isfriend":0, "isfamily":0, "tags":"bw milan milano s bn galaxy railways binari thestation explored diegomenna"}, {"id":"8724738575", "owner":"42195855@N02", "secret":"334d54ecd7", "server":"7318", "farm":8, "title":"rustic", "ispublic":1, "isfriend":0, "isfamily":0, "tags":"ribbet portlandjapanesegardenportlandor hff\u2026"}, {"id":"8725251259", "owner":"30218050@N08", "secret":"e9734e7ca2", "server":"7283", "farm":8, "title":"Spider #explore#", "ispublic":1, "isfriend":0, "isfamily":0, "tags":"canon 3514 5dii canon5dii 5diispiderragnospiderpioggiainsetto35lcanon3514canon"}, {"id":"8726154081", "owner":"30586467@N04", "secret":"e95f46b27b", "server":"7360", "farm":8, "title":"Common Snipe ( Hrossagaukur ) Gallinago gallinago", "ispublic":1, "isfriend":0, "isfamily":0, "tags":""}, {"id":"8726514806", "owner":"37556068@N06", "secret":"8524a61a4d", "server":"7431", "farm":8, "title":"overcast spring - Leica MP - Explored 10th May no. 134", "ispublic":1, "isfriend":0, "isfamily":0, "tags":"leica pink film spring summilux50mm"}, {"id":"8726095034", "owner":"28382374@N04", "secret":"e02ee14928", "server":"7452", "farm":8, "title":"Springtime", "ispublic":1, "isfriend":0, "isfamily":0, "tags":"dog puppy lens collie zoom border panasonic fenton gf1 45200mm"}, {"id":"8725913984", "owner":"34986225@N06", "secret":"745acba630", "server":"7298", "farm":8, "title":"In The Beginning...Explore 5\/10\/13", "ispublic":1, "isfriend":0, "isfamily":0, "tags":"bird nature spring nest wildlife may grill hatchling 2013 southwesternpa dailynaturetnc12"}, {"id":"8725366309", "owner":"57182186@N02", "secret":"9f708c54e0", "server":"7413", "farm":8, "title":"Dandelion Macro [Explored!!!]", "ispublic":1, "isfriend":0, "isfamily":0, "tags":"abstract blur flower macro canon square dof bokeh dandelion explore canon60mmmacrolens explored 450d thegalleryofflowerseffe"}, {"id":"8726204030", "owner":"8073737@N02", "secret":"f76b504ea0", "server":"7458", "farm":8, "title":"Trail to the Yellow Flowers", "ispublic":1, "isfriend":0, "isfamily":0, "tags":"california park green square landscape spring trail hollingsworth garin garindrycreekpioneerregionalparks iphoneography uploaded:by=flickrmobile flickriosapp:filter=nofilter"}, {"id":"8726008878", "owner":"35895492@N05", "secret":"5137569ac8", "server":"7407", "farm":8, "title":"", "ispublic":1, "isfriend":0, "isfamily":0, "tags":"travel sevilla spain balloon seville globo sanlucarlamayor zusanchez"}, {"id":"8725879155", "owner":"35421877@N02", "secret":"2aff86aaf5", "server":"7319", "farm":8, "title":"Springtime colours   (Explored)", "ispublic":1, "isfriend":0, "isfamily":0, "tags":"flowers red orange white flower green yellow colours colourful gardenflower"}, {"id":"8726767634", "owner":"57272180@N08", "secret":"1d01bb0c7a", "server":"7290", "farm":8, "title":"", "ispublic":1, "isfriend":0, "isfamily":0, "tags":""}, {"id":"8726734153", "owner":"48353273@N05", "secret":"2ecd3f699c", "server":"7282", "farm":8, "title":"Mistaken..", "ispublic":1, "isfriend":0, "isfamily":0, "tags":"sunrise canon coast rocks cathedral south australia ii nsw 5d usm kiama ef 1740mm mk f4l"}, {"id":"8725872903", "owner":"44793175@N04", "secret":"005a4b0267", "server":"7356", "farm":8, "title":"Looking For A Way Out", "ispublic":1, "isfriend":0, "isfamily":0, "tags":"uk sky cloud blur lines fence concrete wire colours angle post stones steel may hampshire plastic waste boundary wound barbed rounded spikes galvanised perimeter gosport shallowfocus 2013 nikond300 twjp tokinaatxprolens"}, {"id":"8725763150", "owner":"73557980@N00", "secret":"e9848e5ef7", "server":"7430", "farm":8, "title":"If I had a Boat... [Explored 5\/10\/2013!]", "ispublic":1, "isfriend":0, "isfamily":0, "tags":"festival burningman blackrockcity bm2012 burningman2012 bman2012"}, {"id":"8724964229", "owner":"64289536@N06", "secret":"10fdb38860", "server":"7312", "farm":8, "title":"Izando velas (2). Hoisting sails (2).", "ispublic":1, "isfriend":0, "isfamily":0, "tags":"barcos ships flags estuary bandera r\u00eda costadegalicia"}, {"id":"8727180706", "owner":"41619721@N02", "secret":"4d09397f88", "server":"7394", "farm":8, "title":"Peace", "ispublic":1, "isfriend":0, "isfamily":0, "tags":"roof blackandwhite house nature monochrome field grass mood peace meadow calm dandelion serenity dreams infrared dreamy"}, {"id":"8726615137", "owner":"40598167@N00", "secret":"1d5e43c53b", "server":"7354", "farm":8, "title":"Big Apple", "ispublic":1, "isfriend":0, "isfamily":0, "tags":"newyork colors clouds landscape minolta wideangle"}, {"id":"8725376875", "owner":"67192106@N06", "secret":"e5703e3169", "server":"7303", "farm":8, "title":"Serena", "ispublic":1, "isfriend":0, "isfamily":0, "tags":""}, {"id":"8728266606", "owner":"7997148@N05", "secret":"f1fcb2da16", "server":"7303", "farm":8, "title":"Morning Glory!", "ispublic":1, "isfriend":0, "isfamily":0, "tags":"travel summer clouds landscape flickrfriday gloriousmorning uploaded:by=flickrmobile flickriosapp:filter=nofilter"}, {"id":"8727585088", "owner":"34757839@N08", "secret":"9292293231", "server":"7401", "farm":8, "title":"Caves Beach_11-05-2013_005-Framed-MR", "ispublic":1, "isfriend":0, "isfamily":0, "tags":"spark flame steel wool spin spinning sun sunrise sundance danny james canon eos 7d beach sand water rock cave caves nsw newcastle explore"}, {"id":"8726123528", "owner":"39210981@N08", "secret":"9df2e2df70", "server":"7457", "farm":8, "title":"true blue", "ispublic":1, "isfriend":0, "isfamily":0, "tags":"velvia fujifilm pentax67 rvp100 \u3072\u305f\u3061\u6d77\u6d5c\u516c\u5712 ditao"}, {"id":"8725767717", "owner":"92925802@N03", "secret":"77a2e0f04d", "server":"7293", "farm":8, "title":"Portraits of Boston", "ispublic":1, "isfriend":0, "isfamily":0, "tags":"street portrait boston strangers streetphotography racism portraitsofstrangers portraitsofboston"}, {"id":"8725131709", "owner":"35103888@N00", "secret":"ab2b9bf27c", "server":"7310", "farm":8, "title":"Between earth & clouds", "ispublic":1, "isfriend":0, "isfamily":0, "tags":"sky horses baby grass clouds children caballos switzerland suisse suiza geneva olympus ni\u00f1os ciel cielo nubes bebe nuages enfant gen\u00e8ve islan ginebra herbe equus chevaux vaud hierba salva akhalteke bavois olympuse3 oqv salvamagaz zuiko1260mmf28 wwwmagazcom wwwsalvamagazcom"}, {"id":"8728203338", "owner":"75478705@N03", "secret":"ea3355e67f", "server":"7364", "farm":8, "title":"La Foce Gardens", "ispublic":1, "isfriend":0, "isfamily":0, "tags":"italy garden tuscany montepulciano hdr lafoce nikond4 jayrogers bellamontepulcianocom bellamontepulciano"}, {"id":"8727352568", "owner":"48627921@N05", "secret":"ae9f9016b6", "server":"7411", "farm":8, "title":"Very Calm", "ispublic":1, "isfriend":0, "isfamily":0, "tags":"autumn sea newzealand sky water clouds reflections southisland bankspeninsula tress hilltop hillls"}, {"id":"8726140595", "owner":"38846762@N08", "secret":"2d7f6ed90e", "server":"7429", "farm":8, "title":"Moon Bear sitting pretty. Sniffing flowers.", "ispublic":1, "isfriend":0, "isfamily":0, "tags":"flowers pet cute rodent spring rat"}, {"id":"8725625967", "owner":"43368164@N06", "secret":"7ab056088c", "server":"7446", "farm":8, "title":"Crab apple tree [Explored]", "ispublic":1, "isfriend":0, "isfamily":0, "tags":"flowers white tree nature canon spring blossoms florabella"}, {"id":"8726447823", "owner":"24046524@N06", "secret":"0ab1e9010d", "server":"7357", "farm":8, "title":"Majestic Sky (PM067-B)", "ispublic":1, "isfriend":0, "isfamily":0, "tags":"chris sky panorama usa mountains night dark way photography washington panoramic milky avision collacott"}, {"id":"8726436060", "owner":"11570060@N03", "secret":"c6f0971526", "server":"7446", "farm":8, "title":"flowers everywhere", "ispublic":1, "isfriend":0, "isfamily":0, "tags":"flowers germany spring"}, {"id":"8724980983", "owner":"62113916@N02", "secret":"631159c0e7", "server":"7345", "farm":8, "title":".", "ispublic":1, "isfriend":0, "isfamily":0, "tags":"moscow mamiya645pro ektar100 epsonv500 sekor5040shift"}, {"id":"8726341329", "owner":"7445600@N05", "secret":"3aecf5914d", "server":"7286", "farm":8, "title":"metamorphosis", "ispublic":1, "isfriend":0, "isfamily":0, "tags":"sunset abstract reflection glass refraction swirl multicolored trippin gazingball"}, {"id":"8726138378", "owner":"14657954@N03", "secret":"607534be3d", "server":"7358", "farm":8, "title":"", "ispublic":1, "isfriend":0, "isfamily":0, "tags":""}, {"id":"8725815970", "owner":"88500006@N04", "secret":"a66939f75c", "server":"7441", "farm":8, "title":"Dolphin Jump", "ispublic":1, "isfriend":0, "isfamily":0, "tags":"blue water animal vancouver aquarium nikon bc dolphin britishcolumbia explore stanleypark d7000"}, {"id":"8725720199", "owner":"45712349@N05", "secret":"eae8b3e7c3", "server":"7359", "farm":8, "title":"explored 05.10.2013 #64", "ispublic":1, "isfriend":0, "isfamily":0, "tags":"strand zandvoort hek"}, {"id":"8727328002", "owner":"16176711@N02", "secret":"fcf955dbf8", "server":"7386", "farm":8, "title":"Dungly on coltsfoot --HFDF! {explored}", "ispublic":1, "isfriend":0, "isfamily":0, "tags":"flower macro fly coltsfoot tussilago farfara scathophagastercoraria raynoxdcr250 dungly"}, {"id":"8727313814", "owner":"38080897@N04", "secret":"924868e3f6", "server":"7320", "farm":8, "title":"Its all at sea (Explore 10\/5\/2013)", "ispublic":1, "isfriend":0, "isfamily":0, "tags":"sea rainbow sand rainclouds"}, {"id":"8726099785", "owner":"44845638@N05", "secret":"095fab7c8c", "server":"7450", "farm":8, "title":"", "ispublic":1, "isfriend":0, "isfamily":0, "tags":"longexposure 120 6x6 film analog mediumformat underground newjersey kodak nj tunnel bronica 100 ektar sqai"}, {"id":"8726056596", "owner":"99008687@N00", "secret":"e02914f913", "server":"7307", "farm":8, "title":"", "ispublic":1, "isfriend":0, "isfamily":0, "tags":"china trip travel bridge mountain nature water rock river monkey earth kungfu shan wudang"}]}, "stat":"ok"}