{
    "photos": {
        "page": 1,
        "pages": 10,
        "perpage": 50,
        "total": 500,
        "photo": [
            {
                "id": "8723114398",
                "owner": "24355450@N07",
                "secret": "cd6bf13fab",
                "server": "7416",
                "farm": 8,
                "title": "Loch Damh.",
                "ispublic": 1,
                "isfriend": 0,
                "isfamily": 0
            },
            {
                "id": "8722890819",
                "owner": "53372394@N05",
                "secret": "43c184e42b",
                "server": "7379",
                "farm": 8,
                "title": "Northern Parula",
                "ispublic": 1,
                "isfriend": 0,
                "isfamily": 0
            },
            {
                "id": "8722785779",
                "owner": "30457533@N07",
                "secret": "64758d6b66",
                "server": "7309",
                "farm": 8,
                "title": "Κάθαρσις | Catharsis IV –  Spellbound",
                "ispublic": 1,
                "isfriend": 0,
                "isfamily": 0
            },
            {
                "id": "8724009692",
                "owner": "68939190@N00",
                "secret": "2e92a406f7",
                "server": "7319",
                "farm": 8,
                "title": "“Life is a bowl of cherries”.",
                "ispublic": 1,
                "isfriend": 0,
                "isfamily": 0
            },
            {
                "id": "8723140116",
                "owner": "63659245@N02",
                "secret": "a997afcfa5",
                "server": "7315",
                "farm": 8,
                "title": "Last Spring {Explored}",
                "ispublic": 1,
                "isfriend": 0,
                "isfamily": 0
            },
            {
                "id": "8723294835",
                "owner": "48487366@N06",
                "secret": "e95e14a2bd",
                "server": "7402",
                "farm": 8,
                "title": "Waiting for a sunset",
                "ispublic": 1,
                "isfriend": 0,
                "isfamily": 0
            },
            {
                "id": "8722482635",
                "owner": "55544556@N03",
                "secret": "ecdc84accc",
                "server": "7411",
                "farm": 8,
                "title": "Sunset at the Ranch",
                "ispublic": 1,
                "isfriend": 0,
                "isfamily": 0
            },
            {
                "id": "8724060772",
                "owner": "96818153@N00",
                "secret": "299f9ae7a9",
                "server": "7407",
                "farm": 8,
                "title": "sunset Noordwijkerhout",
                "ispublic": 1,
                "isfriend": 0,
                "isfamily": 0
            },
            {
                "id": "8723966414",
                "owner": "48142512@N02",
                "secret": "c4dff91d40",
                "server": "7446",
                "farm": 8,
                "title": "Pearl-bordered Fritillary on Bluebell",
                "ispublic": 1,
                "isfriend": 0,
                "isfamily": 0
            },
            {
                "id": "8723187088",
                "owner": "8495373@N06",
                "secret": "8fbda26040",
                "server": "7331",
                "farm": 8,
                "title": "~crash~bang~boom~ahhhh~",
                "ispublic": 1,
                "isfriend": 0,
                "isfamily": 0
            },
            {
                "id": "8721992823",
                "owner": "42345335@N08",
                "secret": "b2ca9bd9b1",
                "server": "7308",
                "farm": 8,
                "title": "Having a breather! *more images below*",
                "ispublic": 1,
                "isfriend": 0,
                "isfamily": 0
            },
            {
                "id": "8723118006",
                "owner": "17290303@N04",
                "secret": "5fcdec9caf",
                "server": "7283",
                "farm": 8,
                "title": "(Explore best position #10)",
                "ispublic": 1,
                "isfriend": 0,
                "isfamily": 0
            },
            {
                "id": "8722989748",
                "owner": "55616468@N04",
                "secret": "c61713f272",
                "server": "7356",
                "farm": 8,
                "title": "Pebble prominent Moth",
                "ispublic": 1,
                "isfriend": 0,
                "isfamily": 0
            },
            {
                "id": "8723993694",
                "owner": "57742239@N07",
                "secret": "c4770dc97c",
                "server": "7352",
                "farm": 8,
                "title": "enjoying the moment",
                "ispublic": 1,
                "isfriend": 0,
                "isfamily": 0
            },
            {
                "id": "8722114049",
                "owner": "75976921@N00",
                "secret": "c2c8a63b9b",
                "server": "7325",
                "farm": 8,
                "title": "Elizabeth e",
                "ispublic": 1,
                "isfriend": 0,
                "isfamily": 0
            },
            {
                "id": "8722555635",
                "owner": "60383661@N07",
                "secret": "5e498a5568",
                "server": "7410",
                "farm": 8,
                "title": "Wat Sothon #6",
                "ispublic": 1,
                "isfriend": 0,
                "isfamily": 0
            },
            {
                "id": "8723586484",
                "owner": "19691041@N02",
                "secret": "c0d47e8cef",
                "server": "7314",
                "farm": 8,
                "title": "be still my heart",
                "ispublic": 1,
                "isfriend": 0,
                "isfamily": 0
            },
            {
                "id": "8723234740",
                "owner": "53144119@N06",
                "secret": "1679d76dc5",
                "server": "7329",
                "farm": 8,
                "title": "lately",
                "ispublic": 1,
                "isfriend": 0,
                "isfamily": 0
            },
            {
                "id": "8723114111",
                "owner": "31702576@N04",
                "secret": "e9a3757e64",
                "server": "7417",
                "farm": 8,
                "title": "The Lakes, Snowdonia National Park - Explore #16 (9-05-13)",
                "ispublic": 1,
                "isfriend": 0,
                "isfamily": 0
            },
            {
                "id": "8722195903",
                "owner": "47285744@N05",
                "secret": "c602df1805",
                "server": "7392",
                "farm": 8,
                "title": "Gordale Scar.",
                "ispublic": 1,
                "isfriend": 0,
                "isfamily": 0
            },
            {
                "id": "8721961323",
                "owner": "52301160@N02",
                "secret": "feee6c257f",
                "server": "7412",
                "farm": 8,
                "title": "Peony Party",
                "ispublic": 1,
                "isfriend": 0,
                "isfamily": 0
            },
            {
                "id": "8724683746",
                "owner": "65741590@N07",
                "secret": "c75d55f1ca",
                "server": "7439",
                "farm": 8,
                "title": "Luminous Log",
                "ispublic": 1,
                "isfriend": 0,
                "isfamily": 0
            },
            {
                "id": "8723266186",
                "owner": "31925672@N00",
                "secret": "6b3f8fc853",
                "server": "7440",
                "farm": 8,
                "title": "The Java Sea",
                "ispublic": 1,
                "isfriend": 0,
                "isfamily": 0
            },
            {
                "id": "8722395229",
                "owner": "45166873@N06",
                "secret": "b1c68f3cf0",
                "server": "7390",
                "farm": 8,
                "title": "翡翠水庫晨",
                "ispublic": 1,
                "isfriend": 0,
                "isfamily": 0
            },
            {
                "id": "8724395642",
                "owner": "24298814@N02",
                "secret": "c1392be2e5",
                "server": "7371",
                "farm": 8,
                "title": "California. San Diego skyline. (Explore 9, 2013 -25-)",
                "ispublic": 1,
                "isfriend": 0,
                "isfamily": 0
            },
            {
                "id": "8723633342",
                "owner": "30022926@N00",
                "secret": "8e89c0defb",
                "server": "7458",
                "farm": 8,
                "title": "Female Stonechat",
                "ispublic": 1,
                "isfriend": 0,
                "isfamily": 0
            },
            {
                "id": "8723148258",
                "owner": "41661784@N02",
                "secret": "4c119acfed",
                "server": "7384",
                "farm": 8,
                "title": "Only In My Place - Explore",
                "ispublic": 1,
                "isfriend": 0,
                "isfamily": 0
            },
            {
                "id": "8722928754",
                "owner": "70231077@N06",
                "secret": "1098ab84b2",
                "server": "7400",
                "farm": 8,
                "title": "St William's College, College Street, York, UK (Explored)",
                "ispublic": 1,
                "isfriend": 0,
                "isfamily": 0
            },
            {
                "id": "8722379305",
                "owner": "38824684@N08",
                "secret": "94486ed791",
                "server": "7376",
                "farm": 8,
                "title": "GE-SA-UK   /// Traveling SalaVespas",
                "ispublic": 1,
                "isfriend": 0,
                "isfamily": 0
            },
            {
                "id": "8724646860",
                "owner": "79733106@N08",
                "secret": "7a5553ef78",
                "server": "7321",
                "farm": 8,
                "title": "Low Tide_ 7585 (Explored)",
                "ispublic": 1,
                "isfriend": 0,
                "isfamily": 0
            },
            {
                "id": "8723325556",
                "owner": "33473816@N00",
                "secret": "46ae2cf9fb",
                "server": "7343",
                "farm": 8,
                "title": "Mystery Road",
                "ispublic": 1,
                "isfriend": 0,
                "isfamily": 0
            },
            {
                "id": "8723108336",
                "owner": "95287092@N04",
                "secret": "92969595bd",
                "server": "7290",
                "farm": 8,
                "title": "Riverside Tulips....... Explored",
                "ispublic": 1,
                "isfriend": 0,
                "isfamily": 0
            },
            {
                "id": "8722606353",
                "owner": "58944119@N02",
                "secret": "bd4b1883f1",
                "server": "7432",
                "farm": 8,
                "title": "fisher",
                "ispublic": 1,
                "isfriend": 0,
                "isfamily": 0
            },
            {
                "id": "8722146901",
                "owner": "7621498@N08",
                "secret": "b0153d0c7f",
                "server": "7335",
                "farm": 8,
                "title": "",
                "ispublic": 1,
                "isfriend": 0,
                "isfamily": 0
            },
            {
                "id": "8724691548",
                "owner": "67765443@N06",
                "secret": "37050e3817",
                "server": "7290",
                "farm": 8,
                "title": "CS6 first",
                "ispublic": 1,
                "isfriend": 0,
                "isfamily": 0
            },
            {
                "id": "8723426019",
                "owner": "75158725@N05",
                "secret": "cc0778b387",
                "server": "7430",
                "farm": 8,
                "title": ". (explore 9.5.2013)",
                "ispublic": 1,
                "isfriend": 0,
                "isfamily": 0
            },
            {
                "id": "8723079648",
                "owner": "92130959@N04",
                "secret": "82b307c191",
                "server": "7285",
                "farm": 8,
                "title": "sunshine in her hair",
                "ispublic": 1,
                "isfriend": 0,
                "isfamily": 0
            },
            {
                "id": "8722981892",
                "owner": "48349309@N06",
                "secret": "a6b8f21675",
                "server": "7440",
                "farm": 8,
                "title": "Queen of the Castle - #Explored",
                "ispublic": 1,
                "isfriend": 0,
                "isfamily": 0
            },
            {
                "id": "8722368785",
                "owner": "48380978@N05",
                "secret": "08841993df",
                "server": "7385",
                "farm": 8,
                "title": "Orange tip in the meadow II",
                "ispublic": 1,
                "isfriend": 0,
                "isfamily": 0
            },
            {
                "id": "8724933862",
                "owner": "47776579@N08",
                "secret": "d4977e9493",
                "server": "7433",
                "farm": 8,
                "title": "I'm drying out",
                "ispublic": 1,
                "isfriend": 0,
                "isfamily": 0
            },
            {
                "id": "8724777340",
                "owner": "43883596@N00",
                "secret": "95078556b7",
                "server": "7321",
                "farm": 8,
                "title": "Dandelion Time",
                "ispublic": 1,
                "isfriend": 0,
                "isfamily": 0
            },
            {
                "id": "8723353043",
                "owner": "44437814@N00",
                "secret": "4116d5d446",
                "server": "7349",
                "farm": 8,
                "title": "19",
                "ispublic": 1,
                "isfriend": 0,
                "isfamily": 0
            },
            {
                "id": "8723071151",
                "owner": "43368164@N06",
                "secret": "97c72c1131",
                "server": "7417",
                "farm": 8,
                "title": "Phlox [Explored]",
                "ispublic": 1,
                "isfriend": 0,
                "isfamily": 0
            },
            {
                "id": "8722030439",
                "owner": "31156303@N06",
                "secret": "6bac7da811",
                "server": "7330",
                "farm": 8,
                "title": "A National University View XXVIII / Вид на національний університет XXVIII",
                "ispublic": 1,
                "isfriend": 0,
                "isfamily": 0
            },
            {
                "id": "8724409140",
                "owner": "59269150@N08",
                "secret": "fc87248c4c",
                "server": "7327",
                "farm": 8,
                "title": "End Of A Day",
                "ispublic": 1,
                "isfriend": 0,
                "isfamily": 0
            },
            {
                "id": "8724115748",
                "owner": "77557459@N02",
                "secret": "282e6006ef",
                "server": "7439",
                "farm": 8,
                "title": "A single dream is more powerful than a thousand realities.",
                "ispublic": 1,
                "isfriend": 0,
                "isfamily": 0
            },
            {
                "id": "8723845282",
                "owner": "42828193@N02",
                "secret": "83f2ef3199",
                "server": "7376",
                "farm": 8,
                "title": "Ribbon of Fire (Explored)",
                "ispublic": 1,
                "isfriend": 0,
                "isfamily": 0
            },
            {
                "id": "8723803303",
                "owner": "48969388@N03",
                "secret": "56bf104812",
                "server": "7375",
                "farm": 8,
                "title": "Non impressed gull.",
                "ispublic": 1,
                "isfriend": 0,
                "isfamily": 0
            },
            {
                "id": "8721877497",
                "owner": "14325013@N04",
                "secret": "449727900f",
                "server": "7374",
                "farm": 8,
                "title": "Waking Up to Lightning at Daybreak",
                "ispublic": 1,
                "isfriend": 0,
                "isfamily": 0
            },
            {
                "id": "8724243736",
                "owner": "32433155@N08",
                "secret": "fc893833de",
                "server": "7301",
                "farm": 8,
                "title": "Cold Hills Warm Water",
                "ispublic": 1,
                "isfriend": 0,
                "isfamily": 0
            }
        ]
    },
    "stat": "ok"
}