{"photos":{"page":2, "pages":10, "perpage":50, "total":500, "photo":[{"id":"8724669959", "owner":"83671327@N08", "secret":"490bec7af0", "server":"7385", "farm":8, "title":"Adonis aestivalis L.", "ispublic":1, "isfriend":0, "isfamily":0, "tags":"ranunculaceae colliberici adonisaestivalis"}, {"id":"8725881798", "owner":"92749862@N02", "secret":"3fd4e3cec1", "server":"7390", "farm":8, "title":"Bieszczady Mountains 22", "ispublic":1, "isfriend":0, "isfamily":0, "tags":"travel blue trees wild summer vacation sky panorama sun holiday mountains color tourism nature ecology beautiful beauty grass rock horizontal stone skyline clouds forest trekking season walking spectacular landscape nationalpark highlands high scenery europe european day view natural outdoor hiking path walk top altitude postcard horizon hill meadow reserve clarity poland peak sunny polish ukraine panoramic calm adventure clear route climbing trail mountaineering summit environment slovakia wilderness relaxation majestic range carpathians bieszczady tarnica bukovecmountains"}, {"id":"8725466281", "owner":"59755250@N02", "secret":"09783b351f", "server":"7340", "farm":8, "title":"\u3072\u3087\u3063\u3053\u308a", "ispublic":1, "isfriend":0, "isfamily":0, "tags":"flower spring"}, {"id":"8725457953", "owner":"94802880@N08", "secret":"821d711e79", "server":"7327", "farm":8, "title":"Scooters in Liverpool EXPLORED 108", "ispublic":1, "isfriend":0, "isfamily":0, "tags":""}, {"id":"8725296479", "owner":"67016706@N05", "secret":"a792214333", "server":"7456", "farm":8, "title":"Fuji Shibazakura Festival", "ispublic":1, "isfriend":0, "isfamily":0, "tags":"sky flower japan landscape spring fuji \u685c \u65e5\u672c sakura \u82b1 \u7a7a \u5bcc\u58eb\u5c71 \u98a8\u666f kawaguchi yamanashi \u6625 \u6cb3\u53e3\u6e56 \u5c71\u68a8 jiratto \u30b8\u30e9\u30c3\u30c8"}, {"id":"8724636669", "owner":"38221765@N00", "secret":"d97985c249", "server":"7362", "farm":8, "title":"- New York 2013 -", "ispublic":1, "isfriend":0, "isfamily":0, "tags":"nyc newyork building gehry frankgehry iac"}, {"id":"8727288288", "owner":"39169722@N06", "secret":"69439847e1", "server":"7393", "farm":8, "title":"Cisne Branco", "ispublic":1, "isfriend":0, "isfamily":0, "tags":"segelschiff schiffe hafengeburtstag sailingship sigma1224 cisnebranco hamburgelbe"}, {"id":"8727201196", "owner":"28267706@N02", "secret":"e9c848c3c5", "server":"7298", "farm":8, "title":"Great Crested Grebe on her nest (Explored)", "ispublic":1, "isfriend":0, "isfamily":0, "tags":"woodlane greatcrestedgrebe ellesmere sigmalens canon600d"}, {"id":"8725666173", "owner":"19011707@N02", "secret":"4b0e55c7da", "server":"7374", "farm":8, "title":"I'm giving them the bird !", "ispublic":1, "isfriend":0, "isfamily":0, "tags":"color bird nature canon hcs clichesaturday"}, {"id":"8724725181", "owner":"32126965@N07", "secret":"95f4d53204", "server":"7287", "farm":8, "title":"In Full Bloom ..", "ispublic":1, "isfriend":0, "isfamily":0, "tags":"uk flowers flora tulips blooms closeups"}, {"id":"8726928275", "owner":"53358796@N05", "secret":"81477f145f", "server":"7293", "farm":8, "title":"", "ispublic":1, "isfriend":0, "isfamily":0, "tags":""}, {"id":"8726843733", "owner":"80083342@N07", "secret":"f33e8a992b", "server":"7425", "farm":8, "title":"YQ0A8745", "ispublic":1, "isfriend":0, "isfamily":0, "tags":"newyork brooklyn manhattan brooklynbridgepark freedomtower canon5dmarkiii"}, {"id":"8726505049", "owner":"35164990@N03", "secret":"8021944e93", "server":"7374", "farm":8, "title":"J. Manges Cabin and The Grand, Mt Owen and Tweewinot", "ispublic":1, "isfriend":0, "isfamily":0, "tags":"park camping autumn sunset camp horse cloud lake west flower history fall sunrise canon river waterfall buffalo cabin nikon cowboy kayak tour photoshoot hiking wildlife parks grand moose hike jackson historic canoe trail western patterson 5d wyoming elk paragliding rv teton tetons bison wildflower moran grandteton jacksonhole oxbow d800 wrangler trailhead manges phototour oxbowbend mtmoran schwabacher 5dm3 jamesmanges 5dmiii d800e"}, {"id":"8726212311", "owner":"42100710@N07", "secret":"70165c265f", "server":"7283", "farm":8, "title":"may night sky", "ispublic":1, "isfriend":0, "isfamily":0, "tags":"may 11 explored 2013"}, {"id":"8726012660", "owner":"14902815@N04", "secret":"799cb8c219", "server":"7416", "farm":8, "title":"Walesa type moustaches", "ispublic":1, "isfriend":0, "isfamily":0, "tags":"old blackandwhite bw face up beard nose grey for eyes looking close may poland moustaches politic walesa slavic brighttommorow niechcem alemuszemtakitytuldac"}, {"id":"8725703026", "owner":"79158005@N05", "secret":"49329d25b8", "server":"7437", "farm":8, "title":"Geranium", "ispublic":1, "isfriend":0, "isfamily":0, "tags":"uk pink springflower"}, {"id":"8724700553", "owner":"27297062@N02", "secret":"3c106bff8c", "server":"7346", "farm":8, "title":"Spring delicacy 2", "ispublic":1, "isfriend":0, "isfamily":0, "tags":""}, {"id":"8727806074", "owner":"44349248@N07", "secret":"9eb58478c3", "server":"7428", "farm":8, "title":"curves", "ispublic":1, "isfriend":0, "isfamily":0, "tags":"blackandwhite bw square odc ourdailychallenge"}, {"id":"8726406841", "owner":"22370474@N03", "secret":"b8ffc431eb", "server":"7355", "farm":8, "title":"Out On The Reef", "ispublic":1, "isfriend":0, "isfamily":0, "tags":""}, {"id":"8726367356", "owner":"45166873@N06", "secret":"13853b16aa", "server":"7388", "farm":8, "title":"\u7fe1\u7fe0\u6c34\u5eab\u5c71\u5d50", "ispublic":1, "isfriend":0, "isfamily":0, "tags":""}, {"id":"8725372711", "owner":"36248520@N00", "secret":"a6919b0497", "server":"7439", "farm":8, "title":"``[", "ispublic":1, "isfriend":0, "isfamily":0, "tags":"flower green art 35mm purple f14 sigma explored"}, {"id":"8725184479", "owner":"50095444@N04", "secret":"293bb8381b", "server":"7323", "farm":8, "title":"Sinking Sun", "ispublic":1, "isfriend":0, "isfamily":0, "tags":"sunset sea cloud sun seascape beautiful thailand ship purple violet wave pattaya chonburi"}, {"id":"8725052481", "owner":"29937169@N02", "secret":"174e45d441", "server":"7365", "farm":8, "title":"Florence #3 - Look! it's there!", "ispublic":1, "isfriend":0, "isfamily":0, "tags":"street old city church geotagged florence strada cathedral centro chiesa tuscany cupola firenze duomo toscana storico"}, {"id":"8724943517", "owner":"9524771@N06", "secret":"2d486c7f69", "server":"7315", "farm":8, "title":"[fences] [Explore]", "ispublic":1, "isfriend":0, "isfamily":0, "tags":"fence spring hff"}, {"id":"8726631451", "owner":"26295354@N00", "secret":"dc9132e8a6", "server":"7305", "farm":8, "title":"Saint-Loup de NAMUR    [Church ~ Eglise]", "ispublic":1, "isfriend":0, "isfamily":0, "tags":"street decorations church netherlands lines facade buildings europe arms artistic monogram space coat traditional perspective style structure appreciation explore works restoration elegant patch baroque \u00e9glise paysbas conventional fa\u00e7ade ihs bearing jesuit 1865 classique frontispiece interspersed harmonious frontispice overlooks monogramme \u00e9cusson ordres j\u00e9suites harmonieux baroques sergek europe2013 entrecoup\u00e9es"}, {"id":"8726122193", "owner":"85211860@N06", "secret":"7d2808f67f", "server":"7417", "farm":8, "title":"Robin", "ispublic":1, "isfriend":0, "isfamily":0, "tags":"nature robin birds garden wildlife redbreast enniskerrycowicklow colinrigney"}, {"id":"8725888695", "owner":"23895370@N06", "secret":"728e4dd73d", "server":"7318", "farm":8, "title":"Down The Slough", "ispublic":1, "isfriend":0, "isfamily":0, "tags":""}, {"id":"8725761896", "owner":"54287175@N00", "secret":"85ba8bea3c", "server":"7445", "farm":8, "title":"Draynes", "ispublic":1, "isfriend":0, "isfamily":0, "tags":"storm bradford beck drains"}, {"id":"8725701024", "owner":"26465039@N06", "secret":"e18e52efae", "server":"7394", "farm":8, "title":"dirt track RC race", "ispublic":1, "isfriend":0, "isfamily":0, "tags":"race 4x4 racing dirt flux nitro gasoline buggy rc thermal outrage kyosho hpi ftx nosram"}, {"id":"8724650211", "owner":"48349309@N06", "secret":"19f13855f0", "server":"7355", "farm":8, "title":"Easedale Tarn - #Explored", "ispublic":1, "isfriend":0, "isfamily":0, "tags":"mist mountain lake misty mono path lakedistrict boulder tarn fell easedaletarn"}, {"id":"8727080162", "owner":"49519886@N07", "secret":"d1d1fdf755", "server":"7427", "farm":8, "title":"Heaven Or Hell?", "ispublic":1, "isfriend":0, "isfamily":0, "tags":"selfportrait eyes hazel 365"}, {"id":"8726473328", "owner":"33840486@N05", "secret":"37323fcac2", "server":"7317", "farm":8, "title":"DIANA", "ispublic":1, "isfriend":0, "isfamily":0, "tags":"portrait blackwhite explore"}, {"id":"8726443313", "owner":"47776579@N08", "secret":"e9bea16970", "server":"7424", "farm":8, "title":"Circline", "ispublic":1, "isfriend":0, "isfamily":0, "tags":""}, {"id":"8726062008", "owner":"65011872@N05", "secret":"3df41b420f", "server":"7446", "farm":8, "title":"Rosses", "ispublic":1, "isfriend":0, "isfamily":0, "tags":"light seascape rose clouds landscape cloudy through breaks within rosses"}, {"id":"8725786845", "owner":"50814175@N05", "secret":"e628551694", "server":"7355", "farm":8, "title":"Bar-tailed Godwit", "ispublic":1, "isfriend":0, "isfamily":0, "tags":"uk birds wildlife godwit bartailed"}, {"id":"8725516057", "owner":"22931886@N00", "secret":"cb5f437766", "server":"7369", "farm":8, "title":"Tio Picho\u00b4s house", "ispublic":1, "isfriend":0, "isfamily":0, "tags":"espa\u00f1a casa spain puerta pueblo 15 fachada extremadura cepillo limpieza jaulas al\u00eda"}, {"id":"8725367679", "owner":"89177740@N04", "secret":"656d1f8c4b", "server":"7455", "farm":8, "title":"Yellow House by a pond", "ispublic":1, "isfriend":0, "isfamily":0, "tags":"longexposure house yellow pond belgium ardennen ardennes malmedy ndfilter bellevaux nd110 walloonregion"}, {"id":"8724896215", "owner":"43682662@N02", "secret":"7c7b869367", "server":"7316", "farm":8, "title":"Watching the time roll away", "ispublic":1, "isfriend":0, "isfamily":0, "tags":"35mm hamburg asa100 fujisensia100 reversalfilm rolleib35 triotar3540"}, {"id":"8725688957", "owner":"33037928@N05", "secret":"69ce555fa6", "server":"7412", "farm":8, "title":"The world of a child", "ispublic":1, "isfriend":0, "isfamily":0, "tags":"me"}, {"id":"8726585533", "owner":"43678521@N07", "secret":"d5e62d289c", "server":"7413", "farm":8, "title":"The Rolling Stone,  Miss you. 1978", "ispublic":1, "isfriend":0, "isfamily":0, "tags":""}, {"id":"8726377128", "owner":"21106908@N07", "secret":"d963e7a7fe", "server":"7433", "farm":8, "title":"Duckett's Grove, Co. Carlow (Explored May 10th 2013)", "ispublic":1, "isfriend":0, "isfamily":0, "tags":""}, {"id":"8725991080", "owner":"57933965@N05", "secret":"5160f1283a", "server":"7399", "farm":8, "title":"daffodil bulb", "ispublic":1, "isfriend":0, "isfamily":0, "tags":""}, {"id":"8725873690", "owner":"25487977@N04", "secret":"467fecff33", "server":"7441", "farm":8, "title":"Espacio protegido del Cabo Pe\u00f1as", "ispublic":1, "isfriend":0, "isfamily":0, "tags":"espa\u00f1a asturias cabope\u00f1as"}, {"id":"8725662203", "owner":"65275266@N03", "secret":"7600ab1b55", "server":"7364", "farm":8, "title":"NICE- poesie", "ispublic":1, "isfriend":0, "isfamily":0, "tags":""}, {"id":"8725206027", "owner":"48889051904@N01", "secret":"b1457b2ec6", "server":"7285", "farm":8, "title":"OMD00904", "ispublic":1, "isfriend":0, "isfamily":0, "tags":"car japan tokyo ginza blog olympus \u6771\u4eac \u9280\u5ea7 diablo lamborghini omd em5 14mmf25"}, {"id":"8724887247", "owner":"65315936@N00", "secret":"59d3bf1b81", "server":"7408", "farm":8, "title":"Day 6: Ring of Fire", "ispublic":1, "isfriend":0, "isfamily":0, "tags":"circle fire pattern ring stove burner project365"}, {"id":"8724575745", "owner":"29471650@N05", "secret":"b8cb2c9569", "server":"7368", "farm":8, "title":"Treppenhocker (Explored!)", "ispublic":1, "isfriend":0, "isfamily":0, "tags":"wood canon bayern bavaria eos chair stair chairs treppe holz stuhl st\u00fchle treppen sitze sitz aufgang hocker kishopix"}, {"id":"8727281044", "owner":"92109112@N05", "secret":"6e8d31cbec", "server":"7320", "farm":8, "title":"Tulip waterdrops", "ispublic":1, "isfriend":0, "isfamily":0, "tags":"water rain spring waterdrop clear sphere tulip"}, {"id":"8726422837", "owner":"8908499@N07", "secret":"61678008a4", "server":"7376", "farm":8, "title":"Common Yellowthroat", "ispublic":1, "isfriend":0, "isfamily":0, "tags":"ontario bird nature birds yellow nikon wildlife kingston avian warbler yellowthroat warblers"}, {"id":"8726265034", "owner":"38824684@N08", "secret":"8e20e77226", "server":"7374", "farm":8, "title":"BookMark 0.1   \/\/\/   Marcador 0.1", "ispublic":1, "isfriend":0, "isfamily":0, "tags":"wood color colour macro lumix book golden madera libro panasonic explore bookmark dorado marcador marcap\u00e1ginas lx5"}]}, "stat":"ok"}