{"photos":{"page":1, "pages":10, "perpage":50, "total":500, "photo":[{"id":"8726434017", "owner":"39525342@N04", "secret":"e3ae34370b", "server":"7294", "farm":8, "title":"Bad Luck and Good Luck", "ispublic":1, "isfriend":0, "isfamily":0, "tags":"california bird canon reptile prey predator egret huntingtonbeach greategret 400mm ardeaalba bolsachicaecologicalreserve maureensullivan argiopephotocom argiopephotography"}, {"id":"8726504054", "owner":"30015460@N07", "secret":"905553eb47", "server":"7338", "farm":8, "title":"marcy from Hewes and beyond", "ispublic":1, "isfriend":0, "isfamily":0, "tags":"finalday freedomtower topout"}, {"id":"8726076317", "owner":"78869546@N06", "secret":"20f82baf04", "server":"7452", "farm":8, "title":"ti aspetto...", "ispublic":1, "isfriend":0, "isfamily":0, "tags":""}, {"id":"8724875315", "owner":"27531711@N08", "secret":"4133fcd41f", "server":"7396", "farm":8, "title":"Fiery Reflection", "ispublic":1, "isfriend":0, "isfamily":0, "tags":"longexposure sunset sky usa cloud sun color reflection nature digital georgia landscape us spring unitedstates unitedstatesofamerica scenic thesouth dixie clearsky ze eveninglight dawsonville lakelanier forsythcounty americansouth sunnyweather southernregion 35mmformat warhillpark johncothron canoneos5dmkii distagont2821 southatlanticstates leefiltersystem fieryreflection cothronphotography zeissdistagont21mm28ze 3stopsoftedgegraduatedneutraldensityfilter \u00a9johncothron 3stopreversegraduatedfilter singhray9reversegrad 1smport lee90gs img10802130409"}, {"id":"8726719414", "owner":"60383661@N07", "secret":"24df50f4d4", "server":"7300", "farm":8, "title":"Wat Sothon #7", "ispublic":1, "isfriend":0, "isfamily":0, "tags":"light sky cloud reflection tree water architecture river thailand temple evening twilight nikon stream dusk religion culture d3 chachoengsao totallythailand"}, {"id":"8726321020", "owner":"38130261@N04", "secret":"785c35524b", "server":"7343", "farm":8, "title":"Of Mechs and Men Interior", "ispublic":1, "isfriend":0, "isfamily":0, "tags":"lego diorama mecha mech legomecha legomech thepurge thepurgeeu legosentinel sentinelmech mechakickingwall"}, {"id":"8727088140", "owner":"48487366@N06", "secret":"4434f48c89", "server":"7459", "farm":8, "title":"Storm Clouds", "ispublic":1, "isfriend":0, "isfamily":0, "tags":"sunset sea bw mono coast rocks devon southhams stormyskies roughseas heybrookbay"}, {"id":"8725259151", "owner":"72666115@N02", "secret":"786c61b810", "server":"7382", "farm":8, "title":"\u6d77\u4e4b\u8072", "ispublic":1, "isfriend":0, "isfamily":0, "tags":""}, {"id":"8727041982", "owner":"42336676@N02", "secret":"05bd4ea3cd", "server":"7417", "farm":8, "title":"SR-71 in formation with F-4\u2019s and F-14\u2019s over Edwards AFB", "ispublic":1, "isfriend":0, "isfamily":0, "tags":""}, {"id":"8726108607", "owner":"91557909@N06", "secret":"8721095800", "server":"7368", "farm":8, "title":"White Flower", "ispublic":1, "isfriend":0, "isfamily":0, "tags":""}, {"id":"8725157875", "owner":"90256147@N04", "secret":"0fa19d43e8", "server":"7390", "farm":8, "title":"Sunset over the mountains Al Ain, UAE", "ispublic":1, "isfriend":0, "isfamily":0, "tags":"sunset uae fujifilm alain fujix100"}, {"id":"8725143701", "owner":"77557459@N02", "secret":"49cb06c70d", "server":"7350", "farm":8, "title":"118\/365 Friday FUTAB", "ispublic":1, "isfriend":0, "isfamily":0, "tags":"sun feet me relaxing 365 friday d800 selfie 50f14 futab"}, {"id":"8725015119", "owner":"66650189@N08", "secret":"6250d0d3c9", "server":"7374", "farm":8, "title":"Man walking by the streets of Ouarzazate, Morocco", "ispublic":1, "isfriend":0, "isfamily":0, "tags":"africa street travel people urban man horizontal walking outdoors stair streetphotography viajes morocco step maroc marruecos ouarzazate moroccan travelphotography traditionalclothing colorimage djellaba documentaryphotography fotografiadocumental moroccanculture fotografiadeviajes rachelcarbonell"}, {"id":"8724964399", "owner":"63659245@N02", "secret":"a0342841f2", "server":"7398", "farm":8, "title":"Happy Fence Friday {Explored}", "ispublic":1, "isfriend":0, "isfamily":0, "tags":"blue sky nature grass fence dof bokeh grain chainlink hff explored sonydslra300 dt50mmf18sam"}, {"id":"8726648902", "owner":"50566514@N02", "secret":"c840859bf6", "server":"7325", "farm":8, "title":"Breath .", "ispublic":1, "isfriend":0, "isfamily":0, "tags":"monoblackwhiterayraymondbradshawminimalfine artseaskyphotography"}, {"id":"8725853544", "owner":"56111883@N08", "secret":"e6c93a2561", "server":"7444", "farm":8, "title":"", "ispublic":1, "isfriend":0, "isfamily":0, "tags":"street people blur paris photography photo nikon photographie rue icm flou femmes photographe personnages"}, {"id":"8725543555", "owner":"66759404@N08", "secret":"a755bb7372", "server":"7440", "farm":8, "title":"Ducklng catching a fly", "ispublic":1, "isfriend":0, "isfamily":0, "tags":"specanimal"}, {"id":"8725324607", "owner":"9600117@N03", "secret":"a59ef0e5f1", "server":"7460", "farm":8, "title":"Today's Mass Extinction and Holocene-Anthropocene Thermal Maximum", "ispublic":1, "isfriend":0, "isfamily":0, "tags":"wisconsin wildflowers wildflower extinction massextinction obamaextinction"}, {"id":"8725808672", "owner":"65513951@N03", "secret":"27d978f029", "server":"7318", "farm":8, "title":"Electricity is your friend", "ispublic":1, "isfriend":0, "isfamily":0, "tags":"longexposure industry industrial nightshot electricity nachtaufnahme langzeitbelichtung"}, {"id":"8725428597", "owner":"58944119@N02", "secret":"18cfb32c0f", "server":"7420", "farm":8, "title":"lady fisher", "ispublic":1, "isfriend":0, "isfamily":0, "tags":"west bird nikon mark yorkshire leeds kingfisher hughes wid specanimal"}, {"id":"8725758872", "owner":"43016292@N07", "secret":"74a41e3ce7", "server":"7325", "farm":8, "title":"UK \/\/ London \/\/ Her Majesty\u2019s Royal Palace and Fortress the Tower of London", "ispublic":1, "isfriend":0, "isfamily":0, "tags":"city england london tower architecture gate europe tourist stadt entry attraction gbr traitors grosbritannien stkatharinesandwappingward"}, {"id":"8725562659", "owner":"42163411@N00", "secret":"bae25f330f", "server":"7402", "farm":8, "title":"Happy Furry Friday!", "ispublic":1, "isfriend":0, "isfamily":0, "tags":"pet cats pets katzen hisnameislucky"}, {"id":"8724689291", "owner":"45420581@N03", "secret":"f216158909", "server":"7344", "farm":8, "title":"In loving memory of Annabella", "ispublic":1, "isfriend":0, "isfamily":0, "tags":"inlovingmemorieofannabel"}, {"id":"8724937245", "owner":"73331227@N05", "secret":"7e21d23291", "server":"7351", "farm":8, "title":"What Happens to a Man:  Explored 5.10.2013", "ispublic":1, "isfriend":0, "isfamily":0, "tags":"shadow man profile than what inside less happens matters"}, {"id":"8727262624", "owner":"52473099@N03", "secret":"38888228b7", "server":"7388", "farm":8, "title":"Afternoon March", "ispublic":1, "isfriend":0, "isfamily":0, "tags":"baby ontario canada nature canon geese spring wildlife gosling canadagoose unionville canon70200mmf28l toogoodpond"}, {"id":"8726338520", "owner":"40182922@N05", "secret":"54b1893a36", "server":"7338", "farm":8, "title":"paths", "ispublic":1, "isfriend":0, "isfamily":0, "tags":"city people urban rain groom bride spring path may photographers poland polska rainy trainstation rails railroadstation piotrk\u00f3wtrybunalski"}, {"id":"8725488893", "owner":"55544556@N03", "secret":"760a2a189c", "server":"7301", "farm":8, "title":"Garden of the Gods in Colorado Springs", "ispublic":1, "isfriend":0, "isfamily":0, "tags":"usa mountains landscape nikon colorado gardenofthegods coloradosprings redrock pinetrees d300 nikond300 rwigginphotos ronniewiggin"}, {"id":"8725162653", "owner":"54289096@N00", "secret":"d44cc49a2b", "server":"7290", "farm":8, "title":"poppies and mountain i40 biltmore exit", "ispublic":1, "isfriend":0, "isfamily":0, "tags":"flowers usa mountains clouds asheville northcarolina poppies highways interstate beautification zensutherland 20130508"}, {"id":"8726588832", "owner":"17290303@N04", "secret":"a8b152022f", "server":"7377", "farm":8, "title":"Entrance to the Baltic Art Gallery ( Explore Best position 18 )", "ispublic":1, "isfriend":0, "isfamily":0, "tags":""}, {"id":"8725029283", "owner":"77047177@N02", "secret":"e707b1b950", "server":"7426", "farm":8, "title":"The Beaver - Explored  - 5\/11\/2013", "ispublic":1, "isfriend":0, "isfamily":0, "tags":"vermont unitedstates castleton"}, {"id":"8726660192", "owner":"56777547@N02", "secret":"0247351e5f", "server":"7284", "farm":8, "title":"I see you....", "ispublic":1, "isfriend":0, "isfamily":0, "tags":"dandelion"}, {"id":"8726338332", "owner":"38426812@N05", "secret":"12e35a35f3", "server":"7406", "farm":8, "title":"droplets", "ispublic":1, "isfriend":0, "isfamily":0, "tags":"plant macro green nature water rain garden droplets spring"}, {"id":"8725178023", "owner":"67856158@N05", "secret":"48d1143a01", "server":"7298", "farm":8, "title":"The Essence of Spring - [Explored May 10, 2013]", "ispublic":1, "isfriend":0, "isfamily":0, "tags":"light white 50mm spring dof bokeh cherryblossom sakura cherryblossoms delicate lightpink sonynex5 ghitakatzolsen"}, {"id":"8726777064", "owner":"27450769@N06", "secret":"8f754efcfd", "server":"7299", "farm":8, "title":"\u2740\u25cb\u00b0\u2022Treasures of a rainy day\u2022\u00b0\u25cb\u2740", "ispublic":1, "isfriend":0, "isfamily":0, "tags":"blue plant flower macro green nature wet colors grass rain weather norway closeup garden norge droplets spring flora focus colorful colours dof bokeh natur norwegen drop petal rainy droplet colourful scandinavia tamron blomst hordaland norsk b\u00f8mlo farger sunnhordland boraginaceae omphalodes fargerik explored blueeyedmary omphalodesverna navelwort v\u00e5rkj\u00e6rminne rubladfamilien"}, {"id":"8726006904", "owner":"56916860@N08", "secret":"c3a120a4ec", "server":"7291", "farm":8, "title":"Lingerie - Explore!!!!", "ispublic":1, "isfriend":0, "isfamily":0, "tags":""}, {"id":"8725902181", "owner":"31509777@N02", "secret":"062c514d46", "server":"7332", "farm":8, "title":"A very picturesque little town", "ispublic":1, "isfriend":0, "isfamily":0, "tags":"trekking caminhada pyrenees gr11 pireneus"}, {"id":"8725861440", "owner":"8249354@N02", "secret":"c22ebc12c9", "server":"7436", "farm":8, "title":"Outarde canepeti\u00e8re- M\u00e2le nuptial", "ispublic":1, "isfriend":0, "isfamily":0, "tags":"espagne extremadura littlebustard tetraxtetrax sis\u00e3o outardecanepeti\u00e8re sis\u00f3ncom\u00fan \u0441\u0442\u0440\u0435\u043f\u0435\u0442 gallinaprataiola outardecanepetiere121\u05d7\u05d5\u05d1\u05d4\u05e7\u05d8\u05e0\u05d4 outardecanepetiere121\u00d7\u00d7\u00d7\u00d7\u00d7\u00a7\u00d7\u00d7\u00d7 \u05d7\u05d5\u05d1\u05d4\u05e7\u05d8\u05e0\u05d4"}, {"id":"8725088495", "owner":"49201545@N03", "secret":"bffed6531a", "server":"7320", "farm":8, "title":"Bokeh under a canopy", "ispublic":1, "isfriend":0, "isfamily":0, "tags":""}, {"id":"8726852120", "owner":"14721410@N03", "secret":"519dd78986", "server":"7389", "farm":8, "title":"_MG_2027R Overcoming Boundaries, Enlightenshade, Jon Perry, 2-5-13 (Explore #38, 10 March 2013)", "ispublic":1, "isfriend":0, "isfamily":0, "tags":""}, {"id":"8726021386", "owner":"25017904@N06", "secret":"0363cb3d59", "server":"7430", "farm":8, "title":"Sempre Fedele", "ispublic":1, "isfriend":0, "isfamily":0, "tags":""}, {"id":"8725820854", "owner":"37195641@N03", "secret":"fac776cfc2", "server":"7410", "farm":8, "title":"DSC_8198", "ispublic":1, "isfriend":0, "isfamily":0, "tags":""}, {"id":"8725508807", "owner":"32047152@N06", "secret":"7a1af543b7", "server":"7322", "farm":8, "title":"[Group 0]-_MG_8782__MG_8813-32 images littleplanet.jpg", "ispublic":1, "isfriend":0, "isfamily":0, "tags":""}, {"id":"8725386301", "owner":"8987759@N07", "secret":"e30d0783aa", "server":"7460", "farm":8, "title":"sunset on the docks", "ispublic":1, "isfriend":0, "isfamily":0, "tags":"flowers sunset usa morrobay fishingboats morrorock kevinlcolecom"}, {"id":"8725197351", "owner":"57852399@N05", "secret":"f8eb4eb3c1", "server":"7432", "farm":8, "title":"Glass teal ribbons", "ispublic":1, "isfriend":0, "isfamily":0, "tags":""}, {"id":"8726953718", "owner":"53888772@N06", "secret":"af87662aa9", "server":"7389", "farm":8, "title":"stormy berlin", "ispublic":1, "isfriend":0, "isfamily":0, "tags":""}, {"id":"8726494028", "owner":"42482811@N07", "secret":"e05015a969", "server":"7455", "farm":8, "title":"Sol Duc River", "ispublic":1, "isfriend":0, "isfamily":0, "tags":"nationalpark moss pacificnorthwest olympicnationalpark solduc solducrivertrail"}, {"id":"8726430368", "owner":"20979721@N00", "secret":"dff6057436", "server":"7445", "farm":8, "title":"Hot Spot", "ispublic":1, "isfriend":0, "isfamily":0, "tags":"azure joeazure jazure"}, {"id":"8726037771", "owner":"31911618@N07", "secret":"54327b9e0e", "server":"7411", "farm":8, "title":"IMG_0463", "ispublic":1, "isfriend":0, "isfamily":0, "tags":"city flowers red usa flower reflection green apple nature water leaf airport littlerock peaceful explore raindrops daytime arkansas tranquil centralarkansas iphone5 centralflyingservice waltphotos lordwalt"}, {"id":"8726001838", "owner":"46962681@N07", "secret":"e800825cde", "server":"7398", "farm":8, "title":"Early Delivery (90\/365)", "ispublic":1, "isfriend":0, "isfamily":0, "tags":"sun moon ontario canada water sunrise ship lakeontario bfg"}, {"id":"8725884993", "owner":"59670248@N05", "secret":"1735ef4d2f", "server":"7354", "farm":8, "title":"IMG_0475WA - EXPLORED", "ispublic":1, "isfriend":0, "isfamily":0, "tags":"dragonfly settingsun dragonflyandthesettingsun"}]}, "stat":"ok"}